{
    "/api/*": "/$1",
    "/budget/:id": "/budgets/:id",
    "/account/:id": "/accounts/:id",
    "/account": "/accounts",
    "/transaction/:id": "/transaction/:id",
    "/job/:id": "/jobs/:id",
    "/label/:id": "/labels/:id",
    "/job-label/:id": "/job-labels/:id",
    "/labels": "/404",
    "/jobs": "/404",
    "/posts/:category": "/posts?category=:category",
    "/articles\\?id=:id": "/posts/:id"
}
